{"current_page":1,"data":[{"id":"829f3e19-c8b6-45d8-8031-2eea2318e81f","rfc":"ROBL8205181B2","start_date":"2021-01-01T06:00:00.000000Z","end_date":"2026-02-17T14:46:58.000000Z","type":"issued","request_id":null,"state":"created","sat_status":null,"package_count":0,"xml_count":0,"attempts":0,"last_error":null,"created_at":"2026-02-17T14:51:58.000000Z","updated_at":"2026-02-17T15:00:00.000000Z","next_retry_at":"2026-02-17 09:01:00","business_name":"LUIS ALBERTO ROMANO BARRIOS"},{"id":"a9657877-0102-4f8a-8673-24d0b154a8b1","rfc":"ROBL8205181B2","start_date":"2021-01-01T06:00:00.000000Z","end_date":"2026-02-17T14:46:58.000000Z","type":"received","request_id":null,"state":"created","sat_status":null,"package_count":0,"xml_count":0,"attempts":0,"last_error":null,"created_at":"2026-02-17T14:51:58.000000Z","updated_at":"2026-02-17T15:00:00.000000Z","next_retry_at":"2026-02-17 09:01:00","business_name":"LUIS ALBERTO ROMANO BARRIOS"},{"id":"f1a5304f-d941-4c35-a7bb-776a7d232f6e","rfc":"GAMC810409FG6","start_date":"2026-02-13T06:00:00.000000Z","end_date":"2026-02-17T14:23:50.000000Z","type":"issued","request_id":"a1fbf48a-9a52-46cc-9398-60169c9e8b2b","state":"completed","sat_status":null,"package_count":0,"xml_count":23,"attempts":0,"last_error":null,"created_at":"2026-02-17T14:28:50.000000Z","updated_at":"2026-02-17T14:30:01.000000Z","next_retry_at":null,"business_name":"CESAR ANTONIO GARCIA MENDOZA"},{"id":"6461c1d5-ea0e-435c-9163-f63c2ed99560","rfc":"GAMC810409FG6","start_date":"2026-02-13T06:00:00.000000Z","end_date":"2026-02-17T14:23:50.000000Z","type":"received","request_id":"8db4463d-ed9e-4d33-969e-701fc341dc61","state":"completed","sat_status":null,"package_count":0,"xml_count":15,"attempts":0,"last_error":null,"created_at":"2026-02-17T14:28:50.000000Z","updated_at":"2026-02-17T14:30:02.000000Z","next_retry_at":null,"business_name":"CESAR ANTONIO GARCIA MENDOZA"},{"id":"402482b3-3caa-4eed-8fd0-a72933de2b3d","rfc":"GAMC810409FG6","start_date":"2026-02-13T06:00:00.000000Z","end_date":"2026-02-17T14:18:40.000000Z","type":"issued","request_id":"36fbc535-e621-49f7-9ab2-60de80f71199","state":"completed","sat_status":null,"package_count":0,"xml_count":23,"attempts":0,"last_error":null,"created_at":"2026-02-17T14:23:41.000000Z","updated_at":"2026-02-17T14:26:01.000000Z","next_retry_at":"2026-02-17 08:25:34","business_name":"CESAR ANTONIO GARCIA MENDOZA"},{"id":"dcb0c8bd-f3dd-4e76-8384-ead6e5e2d870","rfc":"GAMC810409FG6","start_date":"2026-02-13T06:00:00.000000Z","end_date":"2026-02-17T14:18:41.000000Z","type":"received","request_id":"3ebfb5a0-0c4e-4016-ba04-a471b447c3c8","state":"completed","sat_status":null,"package_count":0,"xml_count":15,"attempts":0,"last_error":null,"created_at":"2026-02-17T14:23:41.000000Z","updated_at":"2026-02-17T14:26:02.000000Z","next_retry_at":"2026-02-17 08:25:35","business_name":"CESAR ANTONIO GARCIA MENDOZA"},{"id":"73af9a85-251e-4701-9851-85a2f75a8825","rfc":"GAMC810409FG6","start_date":"2021-01-01T06:00:00.000000Z","end_date":"2026-02-16T22:02:30.000000Z","type":"issued","request_id":"25ee83a0-bfa6-4b59-b858-6310f8814bdc","state":"completed","sat_status":null,"package_count":0,"xml_count":8304,"attempts":0,"last_error":null,"created_at":"2026-02-16T22:07:30.000000Z","updated_at":"2026-02-16T22:45:14.000000Z","next_retry_at":"2026-02-16 16:44:17","business_name":"CESAR ANTONIO GARCIA MENDOZA"},{"id":"f4b7d1f2-57d3-4e2d-8c0b-5046e780dd15","rfc":"GAMC810409FG6","start_date":"2021-01-01T06:00:00.000000Z","end_date":"2026-02-16T22:02:30.000000Z","type":"received","request_id":"db2cf1ab-8366-41aa-9296-335a29655ae1","state":"completed","sat_status":null,"package_count":0,"xml_count":10859,"attempts":0,"last_error":null,"created_at":"2026-02-16T22:07:30.000000Z","updated_at":"2026-02-16T22:45:35.000000Z","next_retry_at":"2026-02-16 16:46:31","business_name":"CESAR ANTONIO GARCIA MENDOZA"},{"id":"d49c7309-5bab-4bad-9fc9-e29f99541ca8","rfc":"GAMC810409FG6","start_date":"2026-02-01T06:00:00.000000Z","end_date":"2026-02-16T14:15:34.000000Z","type":"issued","request_id":"3d928aad-28f5-407a-8b47-7a883b9704d5","state":"completed","sat_status":null,"package_count":0,"xml_count":86,"attempts":0,"last_error":null,"created_at":"2026-02-16T14:15:34.000000Z","updated_at":"2026-02-16T14:16:28.000000Z","next_retry_at":null,"business_name":"CESAR ANTONIO GARCIA MENDOZA"},{"id":"6ce709ae-0bcf-4ced-8aec-e9a753ba688c","rfc":"GAMC810409FG6","start_date":"2026-02-01T06:00:00.000000Z","end_date":"2026-02-16T14:15:34.000000Z","type":"received","request_id":"7c92aa8b-b015-41c5-b93a-911f68ea72e5","state":"completed","sat_status":null,"package_count":0,"xml_count":92,"attempts":0,"last_error":null,"created_at":"2026-02-16T14:15:34.000000Z","updated_at":"2026-02-16T14:16:29.000000Z","next_retry_at":null,"business_name":"CESAR ANTONIO GARCIA MENDOZA"},{"id":"e48fd148-dd37-4bb6-a5ff-76300081d293","rfc":"SAFJ730709HX8","start_date":"2021-01-01T06:00:00.000000Z","end_date":"2026-02-11T08:46:40.000000Z","type":"issued","request_id":"cd9927a9-df74-4e1d-839c-e753d5d7e04d","state":"completed","sat_status":null,"package_count":0,"xml_count":421,"attempts":0,"last_error":null,"created_at":"2026-02-11T08:51:40.000000Z","updated_at":"2026-02-16T14:16:18.000000Z","next_retry_at":null,"business_name":"JOSE SALGADO FLORES"},{"id":"c451d204-c8e1-4b75-8a8c-768d61dedb51","rfc":"SAFJ730709HX8","start_date":"2021-01-01T06:00:00.000000Z","end_date":"2026-02-11T08:46:40.000000Z","type":"received","request_id":"7395b33f-836b-4d12-a9b5-61c49d178973","state":"completed","sat_status":null,"package_count":0,"xml_count":5624,"attempts":0,"last_error":null,"created_at":"2026-02-11T08:51:40.000000Z","updated_at":"2026-02-16T17:53:10.000000Z","next_retry_at":"2026-02-16 08:16:40","business_name":"JOSE SALGADO FLORES"},{"id":"c40ab2b5-63c9-4907-86d4-a2d1233fbae1","rfc":"GAMC810409FG6","start_date":"2026-01-27T06:00:00.000000Z","end_date":"2026-02-11T05:59:59.000000Z","type":"issued","request_id":"45e164f5-8666-4553-ba4c-c13839145eb0","state":"completed","sat_status":"3","package_count":1,"xml_count":80,"attempts":12,"last_error":"Fallo al presentar consulta: XML Mal Formado:La solicitud de descarga no es v\u00e1lida. Fecha final invalida","created_at":"2026-02-10T10:43:03.000000Z","updated_at":"2026-02-11T08:38:39.000000Z","next_retry_at":"2026-02-10 05:40:28","business_name":"CESAR ANTONIO GARCIA MENDOZA"},{"id":"51c92596-2d5f-42d3-9007-6cc65596ef9b","rfc":"GAMC810409FG6","start_date":"2026-01-29T06:00:00.000000Z","end_date":"2026-02-11T05:59:59.000000Z","type":"received","request_id":"3853b78a-df71-4665-a843-f8e78ed1fd09","state":"completed","sat_status":"3","package_count":1,"xml_count":75,"attempts":12,"last_error":"Fallo al presentar consulta: XML Mal Formado:La solicitud de descarga no es v\u00e1lida. Fecha final invalida","created_at":"2026-02-10T10:43:03.000000Z","updated_at":"2026-02-11T08:38:41.000000Z","next_retry_at":"2026-02-10 05:41:29","business_name":"CESAR ANTONIO GARCIA MENDOZA"},{"id":"2485beb4-cc75-4d41-89eb-2f1c8427c4e3","rfc":"SASC4607161L8","start_date":"2026-01-21T06:00:00.000000Z","end_date":"2026-02-10T05:59:59.000000Z","type":"issued","request_id":"2d75e492-50e8-4d89-a75f-870f238ff767","state":"completed","sat_status":"3","package_count":1,"xml_count":4,"attempts":0,"last_error":null,"created_at":"2026-02-09T10:34:41.000000Z","updated_at":"2026-02-10T10:31:11.000000Z","next_retry_at":null,"business_name":"JOSE CARMEN SALGADO SALGADO"},{"id":"a0d51fd8-e814-4fc5-b418-1d22cbdd9c5c","rfc":"SASC4607161L8","start_date":"2021-11-18T06:00:00.000000Z","end_date":"2026-02-10T05:59:59.000000Z","type":"received","request_id":"08862a0d-6c5c-4684-b977-409288a0971a","state":"completed","sat_status":"3","package_count":1,"xml_count":1096,"attempts":0,"last_error":null,"created_at":"2026-02-09T10:34:41.000000Z","updated_at":"2026-02-10T10:34:30.000000Z","next_retry_at":null,"business_name":"JOSE CARMEN SALGADO SALGADO"},{"id":"f6cdef95-4bc6-4f6a-9505-c18717ece1f1","rfc":"AATN430301MQ0","start_date":"2025-12-26T06:00:00.000000Z","end_date":"2026-02-09T05:59:59.000000Z","type":"issued","request_id":"72249761-403a-463a-aa26-add70b4e3f92","state":"completed","sat_status":"3","package_count":1,"xml_count":1,"attempts":0,"last_error":null,"created_at":"2026-02-09T00:48:32.000000Z","updated_at":"2026-02-09T00:51:05.000000Z","next_retry_at":null,"business_name":"NIEVES ALVAREZ TELLEZ"},{"id":"72939d2e-acf5-4934-ae7a-e22044d2c81d","rfc":"AATN430301MQ0","start_date":"2026-01-28T06:00:00.000000Z","end_date":"2026-02-09T05:59:59.000000Z","type":"received","request_id":"91734529-dc49-4c70-8fa0-da3453341128","state":"completed","sat_status":"3","package_count":1,"xml_count":1,"attempts":0,"last_error":null,"created_at":"2026-02-09T00:48:32.000000Z","updated_at":"2026-02-09T00:54:08.000000Z","next_retry_at":null,"business_name":"NIEVES ALVAREZ TELLEZ"},{"id":"7cf3b267-2856-41f6-b218-ca2b32f87d91","rfc":"NUAB740223HQ8","start_date":"2025-12-21T06:00:00.000000Z","end_date":"2026-02-09T05:59:59.000000Z","type":"issued","request_id":"dcf3a48a-6480-4429-bcaf-e56404901b6c","state":"completed","sat_status":"3","package_count":1,"xml_count":11,"attempts":0,"last_error":null,"created_at":"2026-02-08T22:54:01.000000Z","updated_at":"2026-02-08T23:15:59.000000Z","next_retry_at":null,"business_name":"BRENDA NU\u00d1EZ ALTAMIRANO"},{"id":"e6f06f1f-a199-4d4a-9490-986038c53b5c","rfc":"NUAB740223HQ8","start_date":"2026-01-27T06:00:00.000000Z","end_date":"2026-02-09T05:59:59.000000Z","type":"received","request_id":"69ca28f0-3c7c-4407-ab92-11fcca8af0ca","state":"completed","sat_status":"3","package_count":1,"xml_count":4,"attempts":0,"last_error":null,"created_at":"2026-02-08T22:54:01.000000Z","updated_at":"2026-02-08T23:19:02.000000Z","next_retry_at":null,"business_name":"BRENDA NU\u00d1EZ ALTAMIRANO"}],"first_page_url":"http:\/\/192.168.100.97:10000\/api\/sat\/requests?page=1","from":1,"last_page":2,"last_page_url":"http:\/\/192.168.100.97:10000\/api\/sat\/requests?page=2","links":[{"url":null,"label":"&laquo; Previous","active":false},{"url":"http:\/\/192.168.100.97:10000\/api\/sat\/requests?page=1","label":"1","active":true},{"url":"http:\/\/192.168.100.97:10000\/api\/sat\/requests?page=2","label":"2","active":false},{"url":"http:\/\/192.168.100.97:10000\/api\/sat\/requests?page=2","label":"Next &raquo;","active":false}],"next_page_url":"http:\/\/192.168.100.97:10000\/api\/sat\/requests?page=2","path":"http:\/\/192.168.100.97:10000\/api\/sat\/requests","per_page":20,"prev_page_url":null,"to":20,"total":32}